depletion-observation-example • isw
…
df_calcs <- df %>%
  bind_cols(as_tibble(get_depletion_from_pumping(.)))
#> Warning in get_aquifer_drawdown_ratio(r = r_w, K = K, D = D, V = V, t = t): ADD
#> CHECK THAT ALPHA IS A UNITS OBJECT
#> Warning in get_aquifer_drawdown_ratio(r = r_wi, K = K, D = D, V = V, t = t):
#> ADD CHECK THAT ALPHA IS A UNITS OBJECT

df_calcs
#> # A tibble: 204 × 12
#>      x1    y `Obs. well` `Pumping well`    id      t   x2      K    D     V
#>    [mi] [mi] <chr>       <chr>          <int> [year] [ft] [ft/s] [ft] <dbl>
#>  1  0.2    0 b           c                  3   0.05 2640  0.001  200   0.2
#>  2  0.2    0 b           c                  3   0.1  2640  0.001  200   0.2
#>  3  0.2    0 b           c                  3   0.2  2640  0.001  200   0.2
#>  4  0.2    0 b           c                  3   0.3  2640  0.001  200   0.2
#>  5  0.2    0 b           c                  3   0.4  2640  0.001  200   0.2
#>  6  0.2    0 b           c                  3   0.5  2640  0.001  200   0.2
#>  7  0.2    0 b           c                  3   0.6  2640  0.001  200   0.2
#>  8  0.2    0 b           c                  3   0.7  2640  0.001  200   0.2
#>  9  0.2    0 b           c                  3   0.8  2640  0.001  200   0.2
#> 10  0.2    0 b           c                  3   0.9  2640  0.001  200   0.2
#> # ℹ 194 more rows
#> # ℹ 2 more variables: stream_depletion_fraction <dbl>,
#> #   aquifer_drawdown_ratio [s/ft^2]
…
